Jacques Serizay
…
## Warning: The `x` argument of `as_tibble.matrix()` must have unique column names if `.name_repair` is omitted as of tibble 2.0.0.
## Using compatibility `.name_repair`.

img

## # A tibble: 1,093,120 x 5
##        y     x     r     g     b
##    <dbl> <dbl> <dbl> <dbl> <dbl>
##  1     1     1 0.286 0.545 0.671
##  2     1     2 0.286 0.545 0.671
##  3     1     3 0.290 0.549 0.675
##  4     1     4 0.290 0.549 0.675
##  5     1     5 0.282 0.553 0.675
##  6     1     6 0.282 0.553 0.675
##  7     1     7 0.282 0.553 0.675
##  8     1     8 0.278 0.549 0.671
##  9     1     9 0.275 0.545 0.667
## 10     1    10 0.298 0.557 0.682
## # … with 1,093,110 more rows
I then “binarize” it in many tiny dots:

bins <- 400
df <- mutate(img, 
    y = as.numeric(cut(y, breaks = bins, include.lowest = TRUE)) %>% scales::rescale(c(0, 1)), 
    x = as.numeric(cut(x, breaks = bins, include.lowest = TRUE)) %>% scales::rescale(c(0, 1)),
) %>% 
    group_by(y, x) %>% 
    summarize(across(c(r,g,b), mean))

## `summarise()` has grouped output by 'y'. You can override using the `.groups` argument.

df

## # A tibble: 160,000 x 5
## # Groups:   y [400]
##        y       x     r     g     b
##    <dbl>   <dbl> <dbl> <dbl> <dbl>
##  1     0 0       0.288 0.547 0.672
##  2     0 0.00251 0.282 0.549 0.672
##  3     0 0.00501 0.289 0.552 0.676
##  4     0 0.00752 0.289 0.545 0.671
##  5     0 0.0100  0.300 0.550 0.678
##  6     0 0.0125  0.286 0.541 0.666
##  7     0 0.0150  0.285 0.543 0.669
##  8     0 0.0175  0.288 0.546 0.672
##  9     0 0.0201  0.282 0.550 0.673
## 10     0 0.0226  0.277 0.547 0.669
## # … with 159,990 more rows
…
