Jacques Serizay
…
Converting the tibble into an even tidier format with tidytext

The tidytext package is very useful to transform a tibble containing strings into a tidier tibble, with only 1 word per row. This is done with the unnest_tokens() function:

library(tidytext)
LOTR

## # A tibble: 9,162 x 9
##     line text       tome    book  chapter chapter_title raw_text     nchar entry
##    <int> <chr>      <chr>   <chr> <chr>   <chr>         <chr>        <int> <chr>
##  1     1 01 - The … 01 - T… <NA>  <NA>    <NA>          "          …    31 tome 
##  2     2 BOOK I     01 - T… <NA>  <NA>    <NA>          "          …     6 book 
##  3     3 Chapter 01 01 - T… <NA>  <NA>    <NA>          "          …    10 chap…
##  4     4 A Long-ex… 01 - T… <NA>  <NA>    <NA>          "          …    21 chap…
##  5     5 When Mr. … 01 - T… BOOK… Chapte… A Long-expec… "     When …   194 corp…
##  6     6 Bilbo was… 01 - T… BOOK… Chapte… A Long-expec… "     Bilbo…   868 corp…
##  7     7 'It will … 01 - T… BOOK… Chapte… A Long-expec… "     'It w…    90 corp…
##  8     8 But so fa… 01 - T… BOOK… Chapte… A Long-expec… "     But s…   416 corp…
##  9     9 The eldes… 01 - T… BOOK… Chapte… A Long-expec… "     The e…   580 corp…
## 10    10 Twelve mo… 01 - T… BOOK… Chapte… A Long-expec… "     Twelv…   451 corp…
## # … with 9,152 more rows

LOTR %>%
    unnest_tokens(word, text)

## # A tibble: 471,247 x 9
##     line tome      book  chapter chapter_title raw_text        nchar entry word 
##    <int> <chr>     <chr> <chr>   <chr>         <chr>           <int> <chr> <chr>
##  1     1 01 - The… <NA>  <NA>    <NA>          "             …    31 tome  01   
##  2     1 01 - The… <NA>  <NA>    <NA>          "             …    31 tome  the  
##  3     1 01 - The… <NA>  <NA>    <NA>          "             …    31 tome  fell…
##  4     1 01 - The… <NA>  <NA>    <NA>          "             …    31 tome  of   
##  5     1 01 - The… <NA>  <NA>    <NA>          "             …    31 tome  the  
##  6     1 01 - The… <NA>  <NA>    <NA>          "             …    31 tome  ring 
##  7     2 01 - The… <NA>  <NA>    <NA>          "             …     6 book  book 
##  8     2 01 - The… <NA>  <NA>    <NA>          "             …     6 book  i    
##  9     3 01 - The… <NA>  <NA>    <NA>          "             …    10 chap… chap…
## 10     3 01 - The… <NA>  <NA>    <NA>          "             …    10 chap… 01   
## # … with 471,237 more rows
…
